{
  "process name": "U35 DY neutral current ee",
  
  "process": "generate p p > e+ e- {NPsqtag}",
  "settings": {
    "mmll":120,
    "mmllmax":5000,
    "etal":2.5,
    "ptl": 0
  },
  "pythia8": "genSeq.Pythia8.Commands += [' PartonLevel:MPI = off']\ngenSeq.Pythia8.Commands += [' SpaceShower:QEDshowerByL = off']\n",
  "metadata": {
    "description": "'Madgraph SMEFT for DY'",
    "contact email": "['xyz@cern.ch']",
    "keywords": "['QED']",
    "description": "'DY neutral current ee production with QED showering and EFT effects.'",
    "generators": "['MadGraph', 'Pythia8']"
  }
}

